<?xml version="1.0" encoding="utf-8"?>
<svg xmlns="http://www.w3.org/2000/svg"
	xmlns:xlink="http://www.w3.org/1999/xlink"
	width="32px" height="34px" viewBox="0 0 32 34">
<style type="text/css"><![CDATA[
.style0 {
  font-size: 18px;
  font-family: "BlissPro";
  fill: rgb(255,165,0);
}
]]></style>
<text transform="translate(4.27,12.00)" class="style0"><tspan x="-5.99" fill="rgb(255,164,0)">D</tspan></text><path fillRule="evenodd" d="M 31.71 34C 31.71 34 25.29 34 25.29 34 25.13 34 25 33.87 25 33.7 25 33.7 25 33.1 25 33.1 25 32.93 25.13 32.8 25.29 32.8 25.29 32.8 31.71 32.8 31.71 32.8 31.87 32.8 32 32.93 32 33.1 32 33.1 32 33.7 32 33.7 32 33.87 31.87 34 31.71 34ZM 28.69 31.53C 28.58 31.62 28.42 31.62 28.31 31.53 28.31 31.53 26 29.45 26 29.45 25.88 29.34 25.87 29.15 25.97 29.02 25.97 29.02 26.36 28.58 26.36 28.58 26.47 28.45 26.65 28.44 26.77 28.55 26.77 28.55 27.92 29.58 27.92 29.58 27.92 29.58 27.92 25.3 27.92 25.3 27.92 25.13 28.05 25 28.21 25 28.21 25 28.79 25 28.79 25 28.95 25 29.08 25.13 29.08 25.3 29.08 25.3 29.08 29.58 29.08 29.58 29.08 29.58 30.23 28.55 30.23 28.55 30.35 28.44 30.53 28.45 30.64 28.58 30.64 28.58 31.03 29.03 31.03 29.03 31.13 29.15 31.12 29.34 31 29.45 31 29.45 28.69 31.53 28.69 31.53Z" fill="rgb(255,165,0)"/></svg>