<?xml version="1.0" encoding="utf-8"?>
<svg xmlns="http://www.w3.org/2000/svg"
	xmlns:xlink="http://www.w3.org/1999/xlink"
	width="34px" height="36px" viewBox="0 0 34 36">
<style type="text/css"><![CDATA[
.style0 {
  font-size: 18px;
  font-family: "BlissPro";
  fill: rgb(43,49,57);
}
]]></style>
<text transform="translate(3.27,12.00)" class="style0"><tspan x="-4.43" fill="rgb(255,164,0)">E</tspan></text><path fillRule="evenodd" d="M 33.2 27.28C 32.66 26.58 31.93 26.02 31.01 25.61 30.09 25.21 29.09 25 28 25 27.19 25 26.41 25.12 25.67 25.36 24.93 25.6 24.29 25.93 23.75 26.34 23.22 26.75 22.79 27.24 22.48 27.8 22.16 28.37 22 28.96 22 29.58 22 30.3 22.2 30.97 22.61 31.6 23.01 32.22 23.56 32.75 24.26 33.17 24.21 33.36 24.16 33.54 24.09 33.72 24.02 33.89 23.96 34.03 23.91 34.14 23.85 34.25 23.78 34.37 23.69 34.5 23.6 34.64 23.53 34.73 23.48 34.79 23.44 34.84 23.36 34.93 23.25 35.06 23.15 35.18 23.08 35.27 23.04 35.31 23.04 35.31 23.02 35.33 22.99 35.37 22.96 35.41 22.94 35.43 22.94 35.43 22.94 35.43 22.9 35.49 22.9 35.49 22.88 35.53 22.87 35.55 22.87 35.56 22.88 35.57 22.87 35.6 22.86 35.63 22.85 35.67 22.85 35.7 22.86 35.72 22.86 35.72 22.86 35.73 22.86 35.73 22.88 35.81 22.92 35.88 22.98 35.94 23.04 35.99 23.11 36.01 23.19 36 23.48 35.96 23.73 35.91 23.95 35.84 25.12 35.52 26.15 34.94 27.03 34.11 27.36 34.15 27.69 34.17 28 34.17 29.09 34.17 30.09 33.96 31.01 33.55 31.93 33.15 32.66 32.59 33.2 31.89 33.73 31.18 34 30.41 34 29.58 34 28.75 33.73 27.99 33.2 27.28Z" fill="rgb(255,164,0)"/></svg>
