<?xml version="1.0" encoding="utf-8"?>
<svg xmlns="http://www.w3.org/2000/svg"
	xmlns:xlink="http://www.w3.org/1999/xlink"
	width="32px" height="34px" viewBox="0 0 32 34">
<style type="text/css"><![CDATA[
.style0 {
  font-size: 18px;
  font-family: "BlissPro";
  fill: rgb(255,165,0);
}
]]></style>
<text transform="translate(4.27,12.00)" class="style0"><tspan x="-4.44" fill="rgb(255,164,0)">S</tspan></text><path fillRule="evenodd" d="M 26.5 34C 26.5 34 20.99 25 20.99 25 20.99 25 32 25 32 25 32 25 26.5 34 26.5 34Z" fill="rgb(255,165,0)"/></svg>