<?xml version="1.0" encoding="utf-8"?>
<svg xmlns="http://www.w3.org/2000/svg"
	xmlns:xlink="http://www.w3.org/1999/xlink"
	width="34px" height="35px" viewBox="0 0 34 35">
<style type="text/css"><![CDATA[
.style0 {
  font-size: 18px;
  font-family: "BlissPro";
  fill: rgb(255,165,0);
}
]]></style>
<text transform="translate(8.27,12.00)" class="style0"><tspan x="-7.61" fill="rgb(255,164,0)">W</tspan></text><path fillRule="evenodd" d="M 28.5 26C 28.5 26 22.99 35 22.99 35 22.99 35 34 35 34 35 34 35 28.5 26 28.5 26Z" fill="rgb(255,165,0)"/></svg>