<?xml version="1.0" encoding="utf-8"?>
<svg xmlns="http://www.w3.org/2000/svg"
	xmlns:xlink="http://www.w3.org/1999/xlink"
	width="19px" height="18px" viewBox="0 0 19 18">
<path fillRule="evenodd" d="M 18.23 6.12C 18.21 6.12 18.19 6.12 18.18 6.12 17.74 6.12 17.38 5.78 17.35 5.33 17.3 4.43 16.96 3.6 16.37 2.93 15.77 2.25 14.98 1.81 14.1 1.67 13.65 1.59 13.35 1.16 13.42 0.7 13.49 0.25 13.92-0.06 14.37 0.01 15.61 0.22 16.75 0.86 17.59 1.81 18.44 2.77 18.92 3.95 19 5.23 19.03 5.69 18.68 6.09 18.23 6.12ZM 15.14 4.1C 15.69 4.74 16.03 5.55 16.08 6.4 16.11 6.86 15.76 7.26 15.31 7.29 15.29 7.29 15.27 7.29 15.26 7.29 14.82 7.29 14.46 6.95 14.43 6.5 14.41 6.02 14.22 5.58 13.91 5.22 13.59 4.86 13.17 4.63 12.7 4.55 12.25 4.47 11.95 4.04 12.02 3.59 12.1 3.13 12.52 2.82 12.97 2.9 13.8 3.03 14.57 3.46 15.14 4.1ZM 12.48 7.28C 13.22 8.29 13.52 9.52 13.64 10.37 13.64 10.38 13.64 10.39 13.64 10.4 13.65 10.47 13.65 10.56 13.66 10.64 13.71 11.21 13.8 12.15 14.04 12.53 14.04 12.54 14.05 12.55 14.05 12.56 14.11 12.67 14.24 12.79 14.37 12.91 14.7 13.2 15.38 13.81 14.82 14.87 14.71 15.07 14.5 15.2 14.27 15.2 14.27 15.2 4.73 15.2 4.73 15.2 4.5 15.2 4.29 15.07 4.18 14.87 3.62 13.81 4.3 13.2 4.63 12.91 4.76 12.79 4.89 12.67 4.95 12.56 4.95 12.55 4.96 12.54 4.96 12.54 5.2 12.15 5.29 11.21 5.34 10.64 5.35 10.56 5.35 10.47 5.36 10.4 5.36 10.39 5.36 10.39 5.36 10.38 5.36 10.38 5.36 10.37 5.36 10.37 5.48 9.52 5.78 8.29 6.52 7.28 7.03 6.58 7.66 6.1 8.4 5.87 8.48 5.32 8.94 4.9 9.5 4.9 10.06 4.9 10.52 5.32 10.6 5.87 11.34 6.1 11.97 6.58 12.48 7.28ZM 6.3 4.55C 5.83 4.63 5.41 4.86 5.09 5.22 4.78 5.58 4.59 6.02 4.56 6.5 4.54 6.95 4.18 7.29 3.74 7.29 3.73 7.29 3.71 7.29 3.69 7.29 3.24 7.26 2.89 6.86 2.92 6.4 2.97 5.55 3.31 4.74 3.86 4.1 4.43 3.46 5.2 3.03 6.03 2.9 6.48 2.82 6.9 3.13 6.98 3.59 7.05 4.04 6.75 4.47 6.3 4.55ZM 4.9 1.67C 4.02 1.81 3.23 2.25 2.63 2.93 2.04 3.6 1.7 4.43 1.65 5.33 1.62 5.78 1.26 6.12 0.82 6.12 0.81 6.12 0.79 6.12 0.77 6.12 0.32 6.09-0.03 5.69 0 5.23 0.08 3.95 0.56 2.77 1.41 1.81 2.25 0.86 3.39 0.22 4.63 0.01 5.08-0.06 5.51 0.25 5.58 0.7 5.65 1.16 5.35 1.59 4.9 1.67ZM 8.38 16.26C 8.38 16.26 10.58 16.26 10.58 16.26 10.73 16.26 10.82 16.34 10.86 16.38 10.96 16.51 10.94 16.67 10.92 16.73 10.92 16.73 10.92 16.74 10.92 16.74 10.82 17.46 10.21 18 9.5 18 8.8 18 8.2 17.49 8.08 16.79 8.08 16.79 8.08 16.78 8.08 16.78 8.06 16.68 8.03 16.5 8.14 16.37 8.2 16.3 8.29 16.26 8.38 16.26Z" fill="rgb(105,127,156)"/></svg>