<?xml version="1.0" encoding="utf-8"?>
<svg xmlns="http://www.w3.org/2000/svg"
	xmlns:xlink="http://www.w3.org/1999/xlink"
	width="8px" height="7px" viewBox="0 0 8 7">
<path fillRule="evenodd" d="M 4-0C 4-0-0.01 6.88-0.01 6.88-0.01 6.88 8 6.88 8 6.88 8 6.88 4-0 4-0Z" fill="rgb(255,165,0)"/></svg>