<?xml version="1.0" encoding="utf-8"?>
<svg xmlns="http://www.w3.org/2000/svg"
	xmlns:xlink="http://www.w3.org/1999/xlink"
	width="12px" height="12px" viewBox="0 0 12 12">
<path fillRule="evenodd" d="M 11.52 8.61C 11.21 9.29 10.78 9.88 10.24 10.38 9.71 10.87 9.07 11.27 8.33 11.56 7.59 11.85 6.81 12 6 12 5.19 12 4.41 11.85 3.67 11.56 2.93 11.27 2.29 10.87 1.76 10.38 1.22 9.88 0.79 9.29 0.48 8.61 0.16 7.93-0 7.21-0 6.46-0 5.59 0.21 4.76 0.63 3.99 1.05 3.21 1.64 2.56 2.4 2.04 2.62 1.89 2.87 1.83 3.14 1.86 3.42 1.89 3.64 2.01 3.8 2.22 3.96 2.42 4.03 2.65 3.99 2.9 3.95 3.15 3.82 3.36 3.6 3.51 3.09 3.87 2.7 4.3 2.42 4.82 2.14 5.33 2 5.88 2 6.46 2 6.96 2.1 7.44 2.32 7.89 2.53 8.35 2.81 8.74 3.17 9.07 3.53 9.4 3.96 9.67 4.45 9.86 4.94 10.06 5.46 10.15 6 10.15 6.54 10.15 7.06 10.06 7.55 9.86 8.04 9.67 8.47 9.4 8.83 9.07 9.19 8.74 9.47 8.35 9.68 7.89 9.9 7.44 10 6.96 10 6.46 10 5.88 9.86 5.33 9.58 4.82 9.3 4.3 8.91 3.87 8.4 3.51 8.18 3.36 8.05 3.16 8.01 2.9 7.97 2.65 8.04 2.42 8.2 2.22 8.37 2.01 8.58 1.89 8.86 1.86 9.14 1.83 9.38 1.89 9.6 2.04 10.36 2.56 10.95 3.21 11.37 3.99 11.79 4.76 12 5.59 12 6.46 12 7.21 11.84 7.93 11.52 8.61ZM 6 6.46C 5.73 6.46 5.49 6.37 5.3 6.19 5.1 6.01 5 5.79 5 5.54 5 5.54 5 0.92 5 0.92 5 0.67 5.1 0.46 5.3 0.27 5.49 0.09 5.73-0 6-0 6.27-0 6.51 0.09 6.7 0.27 6.9 0.46 7 0.67 7 0.92 7 0.92 7 5.54 7 5.54 7 5.79 6.9 6.01 6.7 6.19 6.51 6.37 6.27 6.46 6 6.46Z" fill="rgb(255,165,0)"/></svg>